[gd_scene load_steps=5 format=2]

[ext_resource path="res://assets/monsters/circle.png" type="Texture" id=1]

[sub_resource type="Curve" id=1]
_data = [ Vector2( 0, 1 ), 0.0, 0.0, 0, 0, Vector2( 1, 0 ), 0.0, 0.0, 0, 0 ]

[sub_resource type="CurveTexture" id=2]
curve = SubResource( 1 )

[sub_resource type="ParticlesMaterial" id=3]
emission_shape = 1
emission_sphere_radius = 70.57
flag_disable_z = true
spread = 180.0
gravity = Vector3( 0, 98, 0 )
initial_velocity = 826.09
initial_velocity_random = 1.0
orbit_velocity = 0.0
orbit_velocity_random = 0.0
linear_accel = -300.0
scale = 4.0
scale_random = 1.0
scale_curve = SubResource( 2 )
color = Color( 1, 0, 0.494118, 1 )

[node name="BloodSplatter" type="Particles2D"]
position = Vector2( 0, -6.2568 )
scale = Vector2( 0.3, 0.3 )
z_index = 2
emitting = false
amount = 25
lifetime = 2.0
one_shot = true
speed_scale = 5.0
explosiveness = 1.0
process_material = SubResource( 3 )
texture = ExtResource( 1 )
